Homework Assignment 5
…
logit_mod.train <- glm(WasReadmitted ~ Discharge + Admission + Race2 +
                                  medical_Specialty_2 + Age_2 + Diagnosis + 
                                  HbA1c + time_in_hospital + Age_2:medical_Specialty_2 +
                                    Diagnosis:Discharge + Race2:Discharge + Discharge:time_in_hospital 
                                + medical_Specialty_2:Discharge + time_in_hospital:medical_Specialty_2 +
                                time_in_hospital:Diagnosis + HbA1c:Diagnosis
                 , data = df_features.train, family = binomial)
broom::tidy(logit_mod.train)

## # A tibble: 90 x 5
##    term                                 estimate std.error statistic  p.value
##    <chr>                                   <dbl>     <dbl>     <dbl>    <dbl>
##  1 (Intercept)                           -3.27      0.238    -13.7   8.80e-43
##  2 DischargeOther                         0.232     0.262      0.887 3.75e- 1
##  3 AdmissionOther                        -0.0583    0.0510    -1.14  2.53e- 1
##  4 AdmissionReferral                      0.0269    0.0422     0.637 5.24e- 1
##  5 Race2Caucasian                         0.0322    0.0626     0.515 6.07e- 1
##  6 Race2Missing                          -0.433     0.180     -2.40  1.64e- 2
##  7 Race2Other                            -0.273     0.136     -2.00  4.51e- 2
##  8 medical_Specialty_2General Practice    0.644     0.248      2.60  9.41e- 3
##  9 medical_Specialty_2Internal Medicine   0.625     0.227      2.75  5.94e- 3
## 10 medical_Specialty_2Missing             0.626     0.210      2.98  2.85e- 3
## #  with 80 more rows
…
This is a very interesting exercise to compare the differences between Rf and LR with a imbalanced outcome class. Superficially, the random forest model looks like a better model in terms of accuracy as it only predicts on class. By classifying all of the predictions as no, it is wrong on each actual readmission. Since there are only two classes, and the readmission class only makes up 8.9% of the outcomes, the RF model is too sensitive to the class imbalance and does not make predictions of readmission = Yes. The logistic regression model here would serve as the better model as it is not as sensitive to the class imbalance of the outcome variable.

I lead to believe that they did not split the data into test and train sets. When I run the LR model using a test train split, I get different estimates and p-values compared to running the LR model on the entire dataset. This is expected since the training sample is just that, a sample of the entire dataset. When running the LR model on the entire dataset, I get estimates that are much closer to the published values. I wonder if the difference is the differences in the training sample that we trained vs what they used, or if they fit the model on the entire dataset. Below are the estimates if I used the entire dataset instead of splitting into test/train which are much closer to what was reported in the manuscript.

logit_mod.wholeDf <- glm(WasReadmitted ~ Discharge + Admission + Race2 +
                                  medical_Specialty_2 + Age_2 + Diagnosis + 
                                  HbA1c + time_in_hospital + Age_2:medical_Specialty_2 +
                                    Diagnosis:Discharge + Race2:Discharge + Discharge:time_in_hospital 
                                + medical_Specialty_2:Discharge + time_in_hospital:medical_Specialty_2 +
                                time_in_hospital:Diagnosis + HbA1c:Diagnosis
                 , data = df_features, family = binomial)
broom::tidy(logit_mod.wholeDf)

## # A tibble: 90 x 5
##    term                                 estimate std.error statistic  p.value
##    <chr>                                   <dbl>     <dbl>     <dbl>    <dbl>
##  1 (Intercept)                           -3.20      0.175    -18.2   3.18e-74
##  2 DischargeOther                         0.306     0.195      1.57  1.16e- 1
##  3 AdmissionOther                        -0.124     0.0398    -3.11  1.87e- 3
##  4 AdmissionReferral                     -0.0161    0.0326    -0.495 6.21e- 1
##  5 Race2Caucasian                         0.0166    0.0484     0.343 7.31e- 1
##  6 Race2Missing                          -0.313     0.134     -2.33  1.96e- 2
##  7 Race2Other                            -0.295     0.105     -2.82  4.86e- 3
##  8 medical_Specialty_2General Practice    0.412     0.184      2.23  2.56e- 2
##  9 medical_Specialty_2Internal Medicine   0.408     0.165      2.47  1.34e- 2
## 10 medical_Specialty_2Missing             0.429     0.150      2.86  4.21e- 3
## #  with 80 more rows
…
logit_mod_2.train <- glm(WasReadmitted ~ Discharge + Admission + Race2 +
                                  medical_Specialty_2 + Age_2 + Diagnosis + 
                                  HbA1c + time_in_hospital + number_outpatient 
                                  + diabetesMed + number_diagnoses
                         # + Age_2:medical_Specialty_2 +
                         #            Diagnosis:Discharge + Race2:Discharge + Discharge:time_in_hospital 
                         #        + medical_Specialty_2:Discharge + time_in_hospital:medical_Specialty_2 +
                         #        time_in_hospital:Diagnosis + HbA1c:Diagnosis
                 , data = df_features_2.train, family = binomial)
broom::tidy(logit_mod_2.train)

## # A tibble: 29 x 5
##    term                                 estimate std.error statistic   p.value
##    <chr>                                   <dbl>     <dbl>     <dbl>     <dbl>
##  1 (Intercept)                           -3.46      0.134    -25.8   1.27e-146
##  2 DischargeOther                         0.490     0.0380    12.9   4.82e- 38
##  3 AdmissionOther                        -0.0398    0.0511    -0.779 4.36e-  1
##  4 AdmissionReferral                      0.0338    0.0420     0.804 4.21e-  1
##  5 Race2Caucasian                        -0.0255    0.0467    -0.547 5.85e-  1
##  6 Race2Missing                          -0.239     0.122     -1.96  5.03e-  2
##  7 Race2Other                            -0.0606    0.0965    -0.628 5.30e-  1
##  8 medical_Specialty_2General Practice    0.405     0.103      3.94  8.23e-  5
##  9 medical_Specialty_2Internal Medicine   0.365     0.0936     3.90  9.53e-  5
## 10 medical_Specialty_2Missing             0.225     0.0867     2.59  9.58e-  3
## #  with 19 more rows
…
